{
  "runtimeTarget": {
    "name": ".NETCoreApp,Version=v1.1",
    "signature": "898d3d0afb6303370f6aab22a0c573b084119c50"
  },
  "compilationOptions": {},
  "targets": {
    ".NETCoreApp,Version=v1.1": {
      "EntityLayer/1.0.0": {
        "dependencies": {
          "EPPlus.Core": "1.3.2",
          "Google.Apis.Drive.v3": "1.25.0.834",
          "Microsoft.AspNetCore.Identity.EntityFrameworkCore": "1.1.1",
          "Microsoft.EntityFrameworkCore.Design": "1.1.1",
          "Microsoft.EntityFrameworkCore.SqlServer": "1.1.1",
          "Microsoft.EntityFrameworkCore.SqlServer.Design": "1.1.1",
          "Microsoft.EntityFrameworkCore.Tools": "1.1.0"
        },
        "runtime": {
          "EntityLayer.dll": {}
        }
      },
      "CoreCompat.System.Drawing/1.0.0-beta006": {
        "dependencies": {
          "System.Collections.NonGeneric": "4.3.0",
          "System.Collections.Specialized": "4.3.0",
          "System.ComponentModel.TypeConverter": "4.3.0",
          "System.Drawing.Primitives": "4.0.0"
        },
        "runtime": {
          "lib/netstandard1.3/CoreCompat.System.Drawing.dll": {}
        }
      },
      "EPPlus.Core/1.3.2": {
        "dependencies": {
          "CoreCompat.System.Drawing": "1.0.0-beta006",
          "System.Collections.NonGeneric": "4.3.0",
          "System.Data.Common": "4.3.0",
          "System.Security.Cryptography.Pkcs": "4.3.0",
          "System.Xml.XPath.XmlDocument": "4.3.0",
          "System.Xml.XmlDocument": "4.3.0"
        },
        "runtime": {
          "lib/netstandard1.3/EPPlus.Core.dll": {}
        }
      },
      "Google.Apis/1.25.0": {
        "dependencies": {
          "Google.Apis.Core": "1.25.0"
        },
        "runtime": {
          "lib/netstandard1.3/Google.Apis.dll": {}
        }
      },
      "Google.Apis.Auth/1.25.0": {
        "dependencies": {
          "Google.Apis": "1.25.0",
          "Google.Apis.Core": "1.25.0"
        },
        "runtime": {
          "lib/netstandard1.3/Google.Apis.Auth.PlatformServices.dll": {},
          "lib/netstandard1.3/Google.Apis.Auth.dll": {}
        }
      },
      "Google.Apis.Core/1.25.0": {
        "dependencies": {
          "Newtonsoft.Json": "9.0.1"
        },
        "runtime": {
          "lib/netstandard1.3/Google.Apis.Core.dll": {}
        }
      },
      "Google.Apis.Drive.v3/1.25.0.834": {
        "dependencies": {
          "Google.Apis": "1.25.0",
          "Google.Apis.Auth": "1.25.0"
        },
        "runtime": {
          "lib/netstandard1.3/Google.Apis.Drive.v3.dll": {}
        }
      },
      "Microsoft.AspNetCore.Authentication/1.1.1": {
        "dependencies": {
          "Microsoft.AspNetCore.DataProtection": "1.1.1",
          "Microsoft.AspNetCore.Http": "1.1.1",
          "Microsoft.AspNetCore.Http.Extensions": "1.1.1",
          "Microsoft.Extensions.Logging.Abstractions": "1.1.1",
          "Microsoft.Extensions.Options": "1.1.1",
          "Microsoft.Extensions.WebEncoders": "1.1.1"
        },
        "runtime": {
          "lib/netstandard1.3/Microsoft.AspNetCore.Authentication.dll": {}
        }
      },
      "Microsoft.AspNetCore.Authentication.Cookies/1.1.1": {
        "dependencies": {
          "Microsoft.AspNetCore.Authentication": "1.1.1",
          "Microsoft.Extensions.Options": "1.1.1",
          "Microsoft.Extensions.WebEncoders": "1.1.1"
        },
        "runtime": {
          "lib/netstandard1.3/Microsoft.AspNetCore.Authentication.Cookies.dll": {}
        }
      },
      "Microsoft.AspNetCore.Cryptography.Internal/1.1.1": {
        "runtime": {
          "lib/netstandard1.3/Microsoft.AspNetCore.Cryptography.Internal.dll": {}
        }
      },
      "Microsoft.AspNetCore.Cryptography.KeyDerivation/1.1.1": {
        "dependencies": {
          "Microsoft.AspNetCore.Cryptography.Internal": "1.1.1"
        },
        "runtime": {
          "lib/netstandard1.3/Microsoft.AspNetCore.Cryptography.KeyDerivation.dll": {}
        }
      },
      "Microsoft.AspNetCore.DataProtection/1.1.1": {
        "dependencies": {
          "Microsoft.AspNetCore.Cryptography.Internal": "1.1.1",
          "Microsoft.AspNetCore.DataProtection.Abstractions": "1.1.1",
          "Microsoft.AspNetCore.Hosting.Abstractions": "1.1.1",
          "Microsoft.Extensions.DependencyInjection.Abstractions": "1.1.0",
          "Microsoft.Extensions.Logging.Abstractions": "1.1.1",
          "Microsoft.Extensions.Options": "1.1.1"
        },
        "runtime": {
          "lib/netstandard1.3/Microsoft.AspNetCore.DataProtection.dll": {}
        }
      },
      "Microsoft.AspNetCore.DataProtection.Abstractions/1.1.1": {
        "runtime": {
          "lib/netstandard1.3/Microsoft.AspNetCore.DataProtection.Abstractions.dll": {}
        }
      },
      "Microsoft.AspNetCore.Hosting.Abstractions/1.1.1": {
        "dependencies": {
          "Microsoft.AspNetCore.Hosting.Server.Abstractions": "1.1.1",
          "Microsoft.AspNetCore.Http.Abstractions": "1.1.1",
          "Microsoft.Extensions.Configuration.Abstractions": "1.1.1",
          "Microsoft.Extensions.DependencyInjection.Abstractions": "1.1.0",
          "Microsoft.Extensions.FileProviders.Abstractions": "1.1.0",
          "Microsoft.Extensions.Logging.Abstractions": "1.1.1"
        },
        "runtime": {
          "lib/netstandard1.3/Microsoft.AspNetCore.Hosting.Abstractions.dll": {}
        }
      },
      "Microsoft.AspNetCore.Hosting.Server.Abstractions/1.1.1": {
        "dependencies": {
          "Microsoft.AspNetCore.Http.Features": "1.1.1",
          "Microsoft.Extensions.Configuration.Abstractions": "1.1.1"
        },
        "runtime": {
          "lib/netstandard1.3/Microsoft.AspNetCore.Hosting.Server.Abstractions.dll": {}
        }
      },
      "Microsoft.AspNetCore.Http/1.1.1": {
        "dependencies": {
          "Microsoft.AspNetCore.Http.Abstractions": "1.1.1",
          "Microsoft.AspNetCore.WebUtilities": "1.1.1",
          "Microsoft.Extensions.ObjectPool": "1.1.0",
          "Microsoft.Extensions.Options": "1.1.1",
          "Microsoft.Net.Http.Headers": "1.1.1"
        },
        "runtime": {
          "lib/netstandard1.3/Microsoft.AspNetCore.Http.dll": {}
        }
      },
      "Microsoft.AspNetCore.Http.Abstractions/1.1.1": {
        "dependencies": {
          "Microsoft.AspNetCore.Http.Features": "1.1.1",
          "Microsoft.Extensions.Primitives": "1.1.0",
          "System.Text.Encodings.Web": "4.3.0"
        },
        "runtime": {
          "lib/netstandard1.3/Microsoft.AspNetCore.Http.Abstractions.dll": {}
        }
      },
      "Microsoft.AspNetCore.Http.Extensions/1.1.1": {
        "dependencies": {
          "Microsoft.AspNetCore.Http.Abstractions": "1.1.1",
          "Microsoft.Extensions.FileProviders.Abstractions": "1.1.0",
          "Microsoft.Net.Http.Headers": "1.1.1"
        },
        "runtime": {
          "lib/netstandard1.3/Microsoft.AspNetCore.Http.Extensions.dll": {}
        }
      },
      "Microsoft.AspNetCore.Http.Features/1.1.1": {
        "dependencies": {
          "Microsoft.Extensions.Primitives": "1.1.0",
          "System.Net.WebSockets": "4.3.0"
        },
        "runtime": {
          "lib/netstandard1.3/Microsoft.AspNetCore.Http.Features.dll": {}
        }
      },
      "Microsoft.AspNetCore.Identity/1.1.1": {
        "dependencies": {
          "Microsoft.AspNetCore.Authentication.Cookies": "1.1.1",
          "Microsoft.AspNetCore.Cryptography.KeyDerivation": "1.1.1",
          "Microsoft.AspNetCore.Hosting.Abstractions": "1.1.1"
        },
        "runtime": {
          "lib/netstandard1.3/Microsoft.AspNetCore.Identity.dll": {}
        }
      },
      "Microsoft.AspNetCore.Identity.EntityFrameworkCore/1.1.1": {
        "dependencies": {
          "Microsoft.AspNetCore.Identity": "1.1.1",
          "Microsoft.EntityFrameworkCore.Relational": "1.1.1",
          "System.ComponentModel.TypeConverter": "4.3.0"
        },
        "runtime": {
          "lib/netstandard1.3/Microsoft.AspNetCore.Identity.EntityFrameworkCore.dll": {}
        }
      },
      "Microsoft.AspNetCore.WebUtilities/1.1.1": {
        "dependencies": {
          "Microsoft.Extensions.Primitives": "1.1.0",
          "Microsoft.Net.Http.Headers": "1.1.1",
          "System.Text.Encodings.Web": "4.3.0"
        },
        "runtime": {
          "lib/netstandard1.3/Microsoft.AspNetCore.WebUtilities.dll": {}
        }
      },
      "Microsoft.EntityFrameworkCore/1.1.1": {
        "dependencies": {
          "Microsoft.Extensions.Caching.Memory": "1.1.1",
          "Microsoft.Extensions.DependencyInjection": "1.1.0",
          "Microsoft.Extensions.Logging": "1.1.1",
          "Remotion.Linq": "2.1.1",
          "System.Interactive.Async": "3.0.0"
        },
        "runtime": {
          "lib/netstandard1.3/Microsoft.EntityFrameworkCore.dll": {}
        }
      },
      "Microsoft.EntityFrameworkCore.Design/1.1.1": {
        "dependencies": {
          "Microsoft.AspNetCore.Hosting.Abstractions": "1.1.1",
          "Microsoft.EntityFrameworkCore.Relational.Design": "1.1.1",
          "System.Collections.NonGeneric": "4.3.0"
        },
        "runtime": {
          "lib/netstandard1.3/Microsoft.EntityFrameworkCore.Design.dll": {}
        }
      },
      "Microsoft.EntityFrameworkCore.Relational/1.1.1": {
        "dependencies": {
          "Microsoft.EntityFrameworkCore": "1.1.1",
          "System.Data.Common": "4.3.0"
        },
        "runtime": {
          "lib/netstandard1.3/Microsoft.EntityFrameworkCore.Relational.dll": {}
        }
      },
      "Microsoft.EntityFrameworkCore.Relational.Design/1.1.1": {
        "dependencies": {
          "Microsoft.EntityFrameworkCore.Relational": "1.1.1"
        },
        "runtime": {
          "lib/netstandard1.3/Microsoft.EntityFrameworkCore.Relational.Design.dll": {}
        }
      },
      "Microsoft.EntityFrameworkCore.SqlServer/1.1.1": {
        "dependencies": {
          "Microsoft.EntityFrameworkCore.Relational": "1.1.1",
          "System.Data.SqlClient": "4.3.0"
        },
        "runtime": {
          "lib/netstandard1.3/Microsoft.EntityFrameworkCore.SqlServer.dll": {}
        }
      },
      "Microsoft.EntityFrameworkCore.SqlServer.Design/1.1.1": {
        "dependencies": {
          "Microsoft.EntityFrameworkCore.Relational.Design": "1.1.1",
          "Microsoft.EntityFrameworkCore.SqlServer": "1.1.1"
        },
        "runtime": {
          "lib/netstandard1.3/Microsoft.EntityFrameworkCore.SqlServer.Design.dll": {}
        }
      },
      "Microsoft.EntityFrameworkCore.Tools/1.1.0": {
        "dependencies": {
          "Microsoft.EntityFrameworkCore.Design": "1.1.1"
        }
      },
      "Microsoft.Extensions.Caching.Abstractions/1.1.1": {
        "dependencies": {
          "Microsoft.Extensions.Primitives": "1.1.0"
        },
        "runtime": {
          "lib/netstandard1.0/Microsoft.Extensions.Caching.Abstractions.dll": {}
        }
      },
      "Microsoft.Extensions.Caching.Memory/1.1.1": {
        "dependencies": {
          "Microsoft.Extensions.Caching.Abstractions": "1.1.1",
          "Microsoft.Extensions.DependencyInjection.Abstractions": "1.1.0",
          "Microsoft.Extensions.Options": "1.1.1"
        },
        "runtime": {
          "lib/netstandard1.3/Microsoft.Extensions.Caching.Memory.dll": {}
        }
      },
      "Microsoft.Extensions.Configuration.Abstractions/1.1.1": {
        "dependencies": {
          "Microsoft.Extensions.Primitives": "1.1.0"
        },
        "runtime": {
          "lib/netstandard1.0/Microsoft.Extensions.Configuration.Abstractions.dll": {}
        }
      },
      "Microsoft.Extensions.DependencyInjection/1.1.0": {
        "dependencies": {
          "Microsoft.Extensions.DependencyInjection.Abstractions": "1.1.0"
        },
        "runtime": {
          "lib/netstandard1.1/Microsoft.Extensions.DependencyInjection.dll": {}
        }
      },
      "Microsoft.Extensions.DependencyInjection.Abstractions/1.1.0": {
        "runtime": {
          "lib/netstandard1.0/Microsoft.Extensions.DependencyInjection.Abstractions.dll": {}
        }
      },
      "Microsoft.Extensions.FileProviders.Abstractions/1.1.0": {
        "dependencies": {
          "Microsoft.Extensions.Primitives": "1.1.0"
        },
        "runtime": {
          "lib/netstandard1.0/Microsoft.Extensions.FileProviders.Abstractions.dll": {}
        }
      },
      "Microsoft.Extensions.Logging/1.1.1": {
        "dependencies": {
          "Microsoft.Extensions.DependencyInjection.Abstractions": "1.1.0",
          "Microsoft.Extensions.Logging.Abstractions": "1.1.1"
        },
        "runtime": {
          "lib/netstandard1.1/Microsoft.Extensions.Logging.dll": {}
        }
      },
      "Microsoft.Extensions.Logging.Abstractions/1.1.1": {
        "runtime": {
          "lib/netstandard1.1/Microsoft.Extensions.Logging.Abstractions.dll": {}
        }
      },
      "Microsoft.Extensions.ObjectPool/1.1.0": {
        "runtime": {
          "lib/netstandard1.3/Microsoft.Extensions.ObjectPool.dll": {}
        }
      },
      "Microsoft.Extensions.Options/1.1.1": {
        "dependencies": {
          "Microsoft.Extensions.DependencyInjection.Abstractions": "1.1.0",
          "Microsoft.Extensions.Primitives": "1.1.0"
        },
        "runtime": {
          "lib/netstandard1.0/Microsoft.Extensions.Options.dll": {}
        }
      },
      "Microsoft.Extensions.Primitives/1.1.0": {
        "dependencies": {
          "System.Runtime.CompilerServices.Unsafe": "4.3.0"
        },
        "runtime": {
          "lib/netstandard1.0/Microsoft.Extensions.Primitives.dll": {}
        }
      },
      "Microsoft.Extensions.WebEncoders/1.1.1": {
        "dependencies": {
          "Microsoft.Extensions.DependencyInjection.Abstractions": "1.1.0",
          "Microsoft.Extensions.Options": "1.1.1",
          "System.Text.Encodings.Web": "4.3.0"
        },
        "runtime": {
          "lib/netstandard1.0/Microsoft.Extensions.WebEncoders.dll": {}
        }
      },
      "Microsoft.Net.Http.Headers/1.1.1": {
        "dependencies": {
          "Microsoft.Extensions.Primitives": "1.1.0",
          "System.Diagnostics.Contracts": "4.3.0"
        },
        "runtime": {
          "lib/netstandard1.1/Microsoft.Net.Http.Headers.dll": {}
        }
      },
      "Newtonsoft.Json/9.0.1": {
        "dependencies": {
          "System.Runtime.Serialization.Primitives": "4.1.1"
        },
        "runtime": {
          "lib/netstandard1.0/Newtonsoft.Json.dll": {}
        }
      },
      "Remotion.Linq/2.1.1": {
        "runtime": {
          "lib/netstandard1.0/Remotion.Linq.dll": {}
        }
      },
      "runtime.native.System.Data.SqlClient.sni/4.3.0": {
        "dependencies": {
          "runtime.win7-x64.runtime.native.System.Data.SqlClient.sni": "4.3.0",
          "runtime.win7-x86.runtime.native.System.Data.SqlClient.sni": "4.3.0"
        }
      },
      "runtime.win7-x64.runtime.native.System.Data.SqlClient.sni/4.3.0": {
        "runtimeTargets": {
          "runtimes/win7-x64/native/sni.dll": {
            "rid": "win7-x64",
            "assetType": "native"
          }
        }
      },
      "runtime.win7-x86.runtime.native.System.Data.SqlClient.sni/4.3.0": {
        "runtimeTargets": {
          "runtimes/win7-x86/native/sni.dll": {
            "rid": "win7-x86",
            "assetType": "native"
          }
        }
      },
      "System.Collections.NonGeneric/4.3.0": {
        "runtime": {
          "lib/netstandard1.3/System.Collections.NonGeneric.dll": {}
        }
      },
      "System.Collections.Specialized/4.3.0": {
        "dependencies": {
          "System.Collections.NonGeneric": "4.3.0"
        },
        "runtime": {
          "lib/netstandard1.3/System.Collections.Specialized.dll": {}
        }
      },
      "System.ComponentModel.Primitives/4.3.0": {
        "runtime": {
          "lib/netstandard1.0/System.ComponentModel.Primitives.dll": {}
        }
      },
      "System.ComponentModel.TypeConverter/4.3.0": {
        "dependencies": {
          "System.Collections.NonGeneric": "4.3.0",
          "System.Collections.Specialized": "4.3.0",
          "System.ComponentModel.Primitives": "4.3.0"
        },
        "runtime": {
          "lib/netstandard1.5/System.ComponentModel.TypeConverter.dll": {}
        }
      },
      "System.Data.Common/4.3.0": {
        "runtime": {
          "lib/netstandard1.2/System.Data.Common.dll": {}
        }
      },
      "System.Data.SqlClient/4.3.0": {
        "dependencies": {
          "System.Data.Common": "4.3.0",
          "System.IO.Pipes": "4.3.0",
          "System.Text.Encoding.CodePages": "4.3.0",
          "runtime.native.System.Data.SqlClient.sni": "4.3.0"
        },
        "runtimeTargets": {
          "runtimes/unix/lib/netstandard1.3/System.Data.SqlClient.dll": {
            "rid": "unix",
            "assetType": "runtime"
          },
          "runtimes/win/lib/netstandard1.3/System.Data.SqlClient.dll": {
            "rid": "win",
            "assetType": "runtime"
          }
        }
      },
      "System.Diagnostics.Contracts/4.3.0": {
        "runtime": {
          "lib/netstandard1.0/System.Diagnostics.Contracts.dll": {}
        }
      },
      "System.Drawing.Primitives/4.0.0": {
        "runtime": {
          "lib/netstandard1.1/System.Drawing.Primitives.dll": {}
        }
      },
      "System.Interactive.Async/3.0.0": {
        "runtime": {
          "lib/netstandard1.0/System.Interactive.Async.dll": {}
        }
      },
      "System.IO.Pipes/4.3.0": {
        "runtimeTargets": {
          "runtimes/unix/lib/netstandard1.3/System.IO.Pipes.dll": {
            "rid": "unix",
            "assetType": "runtime"
          },
          "runtimes/win/lib/netstandard1.3/System.IO.Pipes.dll": {
            "rid": "win",
            "assetType": "runtime"
          }
        }
      },
      "System.Net.WebSockets/4.3.0": {
        "runtime": {
          "lib/netstandard1.3/System.Net.WebSockets.dll": {}
        }
      },
      "System.Runtime.CompilerServices.Unsafe/4.3.0": {
        "runtime": {
          "lib/netstandard1.0/System.Runtime.CompilerServices.Unsafe.dll": {}
        }
      },
      "System.Runtime.Serialization.Primitives/4.1.1": {
        "runtime": {
          "lib/netstandard1.3/System.Runtime.Serialization.Primitives.dll": {}
        }
      },
      "System.Security.Cryptography.Pkcs/4.3.0": {
        "runtimeTargets": {
          "runtimes/unix/lib/netstandard1.3/System.Security.Cryptography.Pkcs.dll": {
            "rid": "unix",
            "assetType": "runtime"
          },
          "runtimes/win/lib/netstandard1.3/System.Security.Cryptography.Pkcs.dll": {
            "rid": "win",
            "assetType": "runtime"
          }
        }
      },
      "System.Text.Encoding.CodePages/4.3.0": {
        "runtimeTargets": {
          "runtimes/unix/lib/netstandard1.3/System.Text.Encoding.CodePages.dll": {
            "rid": "unix",
            "assetType": "runtime"
          },
          "runtimes/win/lib/netstandard1.3/System.Text.Encoding.CodePages.dll": {
            "rid": "win",
            "assetType": "runtime"
          }
        }
      },
      "System.Text.Encodings.Web/4.3.0": {
        "runtime": {
          "lib/netstandard1.0/System.Text.Encodings.Web.dll": {}
        }
      },
      "System.Xml.XmlDocument/4.3.0": {
        "runtime": {
          "lib/netstandard1.3/System.Xml.XmlDocument.dll": {}
        }
      },
      "System.Xml.XPath/4.3.0": {
        "runtime": {
          "lib/netstandard1.3/System.Xml.XPath.dll": {}
        }
      },
      "System.Xml.XPath.XmlDocument/4.3.0": {
        "dependencies": {
          "System.Xml.XPath": "4.3.0",
          "System.Xml.XmlDocument": "4.3.0"
        },
        "runtime": {
          "lib/netstandard1.3/System.Xml.XPath.XmlDocument.dll": {}
        }
      }
    }
  },
  "libraries": {
    "EntityLayer/1.0.0": {
      "type": "project",
      "serviceable": false,
      "sha512": ""
    },
    "CoreCompat.System.Drawing/1.0.0-beta006": {
      "type": "package",
      "serviceable": true,
      "sha512": "sha512-KOBeVy8FHx9zkXrIZAM8OdXPrimROmvfB02fOegrYIelNN/zWhsOwzONgD7gw7wOTJgAFfdwpme5CiMraJj47Q==",
      "path": "corecompat.system.drawing/1.0.0-beta006",
      "hashPath": "corecompat.system.drawing.1.0.0-beta006.nupkg.sha512"
    },
    "EPPlus.Core/1.3.2": {
      "type": "package",
      "serviceable": true,
      "sha512": "sha512-4GAe6rlzOTPz9eaZuqd2+33Pidzh6TUtCm1SNF2DqbhWJHtN+nB4ONpm6ezYWtqYVlEf/Dh1zDU/meg0ti0Y5A==",
      "path": "epplus.core/1.3.2",
      "hashPath": "epplus.core.1.3.2.nupkg.sha512"
    },
    "Google.Apis/1.25.0": {
      "type": "package",
      "serviceable": true,
      "sha512": "sha512-6F8TcXVYS1dGSC7m4fQsf7wk7TlVmZV6qyMN3e0HIQHOdXOHNvmvMmI7hEOxfKX7xFKakUC98zxhS9j6GLDpwQ==",
      "path": "google.apis/1.25.0",
      "hashPath": "google.apis.1.25.0.nupkg.sha512"
    },
    "Google.Apis.Auth/1.25.0": {
      "type": "package",
      "serviceable": true,
      "sha512": "sha512-L2mdtqQ1VZxn5v3FLuI3EKsiNQQyaM7rr+tvn1Z1utJ1ZheD1nUyIm9Z6wCM7SL0gImYQWqzWMb6nOtxXKJV7A==",
      "path": "google.apis.auth/1.25.0",
      "hashPath": "google.apis.auth.1.25.0.nupkg.sha512"
    },
    "Google.Apis.Core/1.25.0": {
      "type": "package",
      "serviceable": true,
      "sha512": "sha512-GD3N9s6LLv6MNcBh+uE+fq35Mi7keslkcpmdbnO8ZkQs18Oul1PAmyyflKAdKAWTexxEFknjEchI7erLizADkg==",
      "path": "google.apis.core/1.25.0",
      "hashPath": "google.apis.core.1.25.0.nupkg.sha512"
    },
    "Google.Apis.Drive.v3/1.25.0.834": {
      "type": "package",
      "serviceable": true,
      "sha512": "sha512-i0jpBJOqvzFDpMlcVXR12QSvo875mAlbm1NJV5CxcqtRl8uYE6H0bKi8OMUUDbUXFmO7YIESCXXEOlyDRJggYQ==",
      "path": "google.apis.drive.v3/1.25.0.834",
      "hashPath": "google.apis.drive.v3.1.25.0.834.nupkg.sha512"
    },
    "Microsoft.AspNetCore.Authentication/1.1.1": {
      "type": "package",
      "serviceable": true,
      "sha512": "sha512-KQ39XT2JiQOTdA+/OeXNNAw8cBh5D6N+qKc7bXdtaZH6aXcCL8Au5N6AVtLtwJnr603Rn6ZtuimZNFC7XOz5WA==",
      "path": "microsoft.aspnetcore.authentication/1.1.1",
      "hashPath": "microsoft.aspnetcore.authentication.1.1.1.nupkg.sha512"
    },
    "Microsoft.AspNetCore.Authentication.Cookies/1.1.1": {
      "type": "package",
      "serviceable": true,
      "sha512": "sha512-YNTHmYXQGfuk5/3o0WpcCeZniBfsoVC4QC35ZfxYJ8E/P6OAmZnNc1N860jWl3Aev7Kp5AEbqUlthJS4PtizoA==",
      "path": "microsoft.aspnetcore.authentication.cookies/1.1.1",
      "hashPath": "microsoft.aspnetcore.authentication.cookies.1.1.1.nupkg.sha512"
    },
    "Microsoft.AspNetCore.Cryptography.Internal/1.1.1": {
      "type": "package",
      "serviceable": true,
      "sha512": "sha512-5UWkDHCCFX19CFDZmLIH/WFffCGZz+eFmbCPCcUXjn7oHl3el34aUNB5liKtVmcM4TP1+OjxCMomU6nQy/g6CA==",
      "path": "microsoft.aspnetcore.cryptography.internal/1.1.1",
      "hashPath": "microsoft.aspnetcore.cryptography.internal.1.1.1.nupkg.sha512"
    },
    "Microsoft.AspNetCore.Cryptography.KeyDerivation/1.1.1": {
      "type": "package",
      "serviceable": true,
      "sha512": "sha512-sSfIghqM0VgbQ6cX4ieYywrZu7viAmvEozqruFXJy6XOJu3ceZdpaLMC+C4nJRr/76VSA+KvkSlD1ICCYeI8SA==",
      "path": "microsoft.aspnetcore.cryptography.keyderivation/1.1.1",
      "hashPath": "microsoft.aspnetcore.cryptography.keyderivation.1.1.1.nupkg.sha512"
    },
    "Microsoft.AspNetCore.DataProtection/1.1.1": {
      "type": "package",
      "serviceable": true,
      "sha512": "sha512-5R0AKqx/NJ/GHuDymZx1/gXcYl1+/OLo5XPNejBKnWqm/EiZs6+bOM1+O8uEdr3RygUIDTWSCEHq3W7bKt0GSg==",
      "path": "microsoft.aspnetcore.dataprotection/1.1.1",
      "hashPath": "microsoft.aspnetcore.dataprotection.1.1.1.nupkg.sha512"
    },
    "Microsoft.AspNetCore.DataProtection.Abstractions/1.1.1": {
      "type": "package",
      "serviceable": true,
      "sha512": "sha512-vXD8MXsGa5tt9Ez8GlC8rh8YmU+sd/aY4MKtpT3bSusga2fgXB2kUNs1ZbHzKt1ciAlUEmUTeb55qzhIqG3yUg==",
      "path": "microsoft.aspnetcore.dataprotection.abstractions/1.1.1",
      "hashPath": "microsoft.aspnetcore.dataprotection.abstractions.1.1.1.nupkg.sha512"
    },
    "Microsoft.AspNetCore.Hosting.Abstractions/1.1.1": {
      "type": "package",
      "serviceable": true,
      "sha512": "sha512-m93r3mNu/igz8YLJ6ra01FeMdKp0s+UKoq5WGqRZ6M9iJJO6TDyLMU+xE9HfsKeSKq6apPJOHDakjRJU2+e+PQ==",
      "path": "microsoft.aspnetcore.hosting.abstractions/1.1.1",
      "hashPath": "microsoft.aspnetcore.hosting.abstractions.1.1.1.nupkg.sha512"
    },
    "Microsoft.AspNetCore.Hosting.Server.Abstractions/1.1.1": {
      "type": "package",
      "serviceable": true,
      "sha512": "sha512-TjpIh4jjzkqnuTyMSwCNaYVqTvklxA8m77E+3KuaIxdgqMsDUs8qlZn6pUOXWIeRAGTDYoDpSpMw9rqbEQnksg==",
      "path": "microsoft.aspnetcore.hosting.server.abstractions/1.1.1",
      "hashPath": "microsoft.aspnetcore.hosting.server.abstractions.1.1.1.nupkg.sha512"
    },
    "Microsoft.AspNetCore.Http/1.1.1": {
      "type": "package",
      "serviceable": true,
      "sha512": "sha512-chwq7cwAe+CnnGIvtarKxeti2hDTdqZfR2n7tLghPgJS/62fDJiQAWjYuZfWSv7uG6JHGQJruR55hfL2GGJxVA==",
      "path": "microsoft.aspnetcore.http/1.1.1",
      "hashPath": "microsoft.aspnetcore.http.1.1.1.nupkg.sha512"
    },
    "Microsoft.AspNetCore.Http.Abstractions/1.1.1": {
      "type": "package",
      "serviceable": true,
      "sha512": "sha512-dPFx5SSE7/vxnOjfGYPtWxPpsq5C0f23aQr4H2wYbsbLOIZrxFxF+Sny9Fk353ccYZpsCLv2Sw1CXzJluHaI9Q==",
      "path": "microsoft.aspnetcore.http.abstractions/1.1.1",
      "hashPath": "microsoft.aspnetcore.http.abstractions.1.1.1.nupkg.sha512"
    },
    "Microsoft.AspNetCore.Http.Extensions/1.1.1": {
      "type": "package",
      "serviceable": true,
      "sha512": "sha512-dBe3igWfas6tSLokQFByivqyCUv0Vo45Ej/yj5TJ8QIZu0Q8ueI6x9t8+2jPhrEGg+LmYabeULwnj/HhrpZO+Q==",
      "path": "microsoft.aspnetcore.http.extensions/1.1.1",
      "hashPath": "microsoft.aspnetcore.http.extensions.1.1.1.nupkg.sha512"
    },
    "Microsoft.AspNetCore.Http.Features/1.1.1": {
      "type": "package",
      "serviceable": true,
      "sha512": "sha512-fCpvh12DdNGIzHduKTsfTktfWPAQ9aJo3aG5mjqP6hJld/Qu39W2nM090fd45ek7+CUCg66nyeK2fmJYahgl6g==",
      "path": "microsoft.aspnetcore.http.features/1.1.1",
      "hashPath": "microsoft.aspnetcore.http.features.1.1.1.nupkg.sha512"
    },
    "Microsoft.AspNetCore.Identity/1.1.1": {
      "type": "package",
      "serviceable": true,
      "sha512": "sha512-cSNJ3D0kfkW/TSEnvdIShEysrAX2D7sRzRCwNwrElhm+YzzG9WBY4a0+pWuz/1uFMMoOY9MfszhhHNBcNtWCCQ==",
      "path": "microsoft.aspnetcore.identity/1.1.1",
      "hashPath": "microsoft.aspnetcore.identity.1.1.1.nupkg.sha512"
    },
    "Microsoft.AspNetCore.Identity.EntityFrameworkCore/1.1.1": {
      "type": "package",
      "serviceable": true,
      "sha512": "sha512-ah1BFKtuzYMGg0NeAJ7f3Iay3yCTNrEJKMspmECS4hl6uuV+Nit53VWKhdkr63yDsCZOHCtozGSas5hF2GJUzw==",
      "path": "microsoft.aspnetcore.identity.entityframeworkcore/1.1.1",
      "hashPath": "microsoft.aspnetcore.identity.entityframeworkcore.1.1.1.nupkg.sha512"
    },
    "Microsoft.AspNetCore.WebUtilities/1.1.1": {
      "type": "package",
      "serviceable": true,
      "sha512": "sha512-yxNSN5cpbZei2UIrUL5MTWSUKSA33dAZLrMIF6eE+XYwakxdWwgrbOTJz1gRJ/rUyvMN1Iu6ORcZr1/WMB0tzw==",
      "path": "microsoft.aspnetcore.webutilities/1.1.1",
      "hashPath": "microsoft.aspnetcore.webutilities.1.1.1.nupkg.sha512"
    },
    "Microsoft.EntityFrameworkCore/1.1.1": {
      "type": "package",
      "serviceable": true,
      "sha512": "sha512-wkPi/5FriMthUoCBjqO/hCDEGdRrJ5aTGKa9jGHK7NYw1uSxb2FXksBuqqMfFve3sd2j4+9BpYtdvAJ6fzjeXg==",
      "path": "microsoft.entityframeworkcore/1.1.1",
      "hashPath": "microsoft.entityframeworkcore.1.1.1.nupkg.sha512"
    },
    "Microsoft.EntityFrameworkCore.Design/1.1.1": {
      "type": "package",
      "serviceable": true,
      "sha512": "sha512-xFeAAi9LUckgeinjji7WPMwPUbZNb6mTVRhWAlo+RVsjpnEjeAQk3Gw4OP3Ln/yncji64J7e74ue+yIArQYt+Q==",
      "path": "microsoft.entityframeworkcore.design/1.1.1",
      "hashPath": "microsoft.entityframeworkcore.design.1.1.1.nupkg.sha512"
    },
    "Microsoft.EntityFrameworkCore.Relational/1.1.1": {
      "type": "package",
      "serviceable": true,
      "sha512": "sha512-wIeIC02b3uFQ0Mgd5yDcpzbGQs383p2BAkpMjNz2xffo9QAFXO1CDavuolRk5I2Rv/iBy9igB91BZoY0tpcMzA==",
      "path": "microsoft.entityframeworkcore.relational/1.1.1",
      "hashPath": "microsoft.entityframeworkcore.relational.1.1.1.nupkg.sha512"
    },
    "Microsoft.EntityFrameworkCore.Relational.Design/1.1.1": {
      "type": "package",
      "serviceable": true,
      "sha512": "sha512-WZKmQwuDUTLtjhxT/6c3hiMJTwi8OBl9rsPljY/ZhcMFAsF8sLj4uVrpkuNmrg5DEK2dEtnQn6p+Y9miQiIeZw==",
      "path": "microsoft.entityframeworkcore.relational.design/1.1.1",
      "hashPath": "microsoft.entityframeworkcore.relational.design.1.1.1.nupkg.sha512"
    },
    "Microsoft.EntityFrameworkCore.SqlServer/1.1.1": {
      "type": "package",
      "serviceable": true,
      "sha512": "sha512-ltffbSKAfcVPWy4Ovbm+Qw6Kivmrn7SMWLmOl1mBJDZ+TmI7CSXwclLDunmlqyv2KsA/FGVgulQTe/RU3EgqCg==",
      "path": "microsoft.entityframeworkcore.sqlserver/1.1.1",
      "hashPath": "microsoft.entityframeworkcore.sqlserver.1.1.1.nupkg.sha512"
    },
    "Microsoft.EntityFrameworkCore.SqlServer.Design/1.1.1": {
      "type": "package",
      "serviceable": true,
      "sha512": "sha512-iqgdh6F9kiLjQZ3JPtcgNDoA8r/76SB47eUvTk9K05+WA5fJOtMwTFFEPYz+fvSY03/9ouA6eXMn7b1AYUBn4A==",
      "path": "microsoft.entityframeworkcore.sqlserver.design/1.1.1",
      "hashPath": "microsoft.entityframeworkcore.sqlserver.design.1.1.1.nupkg.sha512"
    },
    "Microsoft.EntityFrameworkCore.Tools/1.1.0": {
      "type": "package",
      "serviceable": true,
      "sha512": "sha512-sv9JJsG4p/zu4KrRXjTsZ/Bp1mdRbOLkqrxDtQo6P5e1O+1Z6qXm4gaR5km25tpqLN4QD10lX/Kw6MEyLWf2aQ==",
      "path": "microsoft.entityframeworkcore.tools/1.1.0",
      "hashPath": "microsoft.entityframeworkcore.tools.1.1.0.nupkg.sha512"
    },
    "Microsoft.Extensions.Caching.Abstractions/1.1.1": {
      "type": "package",
      "serviceable": true,
      "sha512": "sha512-5Ll69b2mk5vRMUgDbf0BWIYN3RkXdtNb+MB2GOhkxhq6Zldq8hpj+zN/gAs01JOcM8M/lkGAgxjzxh69QKK+Hg==",
      "path": "microsoft.extensions.caching.abstractions/1.1.1",
      "hashPath": "microsoft.extensions.caching.abstractions.1.1.1.nupkg.sha512"
    },
    "Microsoft.Extensions.Caching.Memory/1.1.1": {
      "type": "package",
      "serviceable": true,
      "sha512": "sha512-E35yEKFOc8Q/Ocfg5QDdcp/1nzUtycDzJjvUJU3R1iDp/iNl3/qDCyOWmU8CjbtrsD1CpAbvGdwOMJTOw3fqcw==",
      "path": "microsoft.extensions.caching.memory/1.1.1",
      "hashPath": "microsoft.extensions.caching.memory.1.1.1.nupkg.sha512"
    },
    "Microsoft.Extensions.Configuration.Abstractions/1.1.1": {
      "type": "package",
      "serviceable": true,
      "sha512": "sha512-G1ZdqjdRsPkJHZCnvhLAtsyAMxxAMsf3IPHxOD9xDc09qZa+vL4jto1gg30a9q6sn0CVJyJ/85Qt+L9PR8tWKQ==",
      "path": "microsoft.extensions.configuration.abstractions/1.1.1",
      "hashPath": "microsoft.extensions.configuration.abstractions.1.1.1.nupkg.sha512"
    },
    "Microsoft.Extensions.DependencyInjection/1.1.0": {
      "type": "package",
      "serviceable": true,
      "sha512": "sha512-meG2tsLdHT0SROqxGBiY8A6XUKlwsQVj1N9cyrS+ZJd1MKhoSaw54KuSH6PmpCB/K/ifkR7o9yVVVamu9XZyeg==",
      "path": "microsoft.extensions.dependencyinjection/1.1.0",
      "hashPath": "microsoft.extensions.dependencyinjection.1.1.0.nupkg.sha512"
    },
    "Microsoft.Extensions.DependencyInjection.Abstractions/1.1.0": {
      "type": "package",
      "serviceable": true,
      "sha512": "sha512-2luhjVaWZd8Wmr2KUJcLNAN+iZgezTyfamLG6Lo5FVYY1LYaS7UFOmNtApHGVIytWWtuXSk4ea0t2Vx0HgF5fg==",
      "path": "microsoft.extensions.dependencyinjection.abstractions/1.1.0",
      "hashPath": "microsoft.extensions.dependencyinjection.abstractions.1.1.0.nupkg.sha512"
    },
    "Microsoft.Extensions.FileProviders.Abstractions/1.1.0": {
      "type": "package",
      "serviceable": true,
      "sha512": "sha512-TBG5/xsMSOJ9hrit5TcM6Ipn+3/cgBs5tywXHun+L+8w1WYal13AMac2ziwPRY/PQqC4oG88Hw9hwIEj95xdGw==",
      "path": "microsoft.extensions.fileproviders.abstractions/1.1.0",
      "hashPath": "microsoft.extensions.fileproviders.abstractions.1.1.0.nupkg.sha512"
    },
    "Microsoft.Extensions.Logging/1.1.1": {
      "type": "package",
      "serviceable": true,
      "sha512": "sha512-cxLG416uOEFmnv7w4/rsVKD4dRYFuUY+G5WXpLVLMNIL6VYcQkDe67cx2IWBrtUieA08w9eCuxrd2pxIrJ7Wtg==",
      "path": "microsoft.extensions.logging/1.1.1",
      "hashPath": "microsoft.extensions.logging.1.1.1.nupkg.sha512"
    },
    "Microsoft.Extensions.Logging.Abstractions/1.1.1": {
      "type": "package",
      "serviceable": true,
      "sha512": "sha512-MMWQNrwQKrSigIaGpPWIK9ZZCNd9aaCHaLgwfPiJNdOfU3UE+RA093YZ7B879MdZ1qSFPcS1QLLNjD+dxXX7Aw==",
      "path": "microsoft.extensions.logging.abstractions/1.1.1",
      "hashPath": "microsoft.extensions.logging.abstractions.1.1.1.nupkg.sha512"
    },
    "Microsoft.Extensions.ObjectPool/1.1.0": {
      "type": "package",
      "serviceable": true,
      "sha512": "sha512-8tg7DpFubtj98Lf+N+zpu5VXe9EHCPrqcukpsjC9BSfcnC0Oq8CUZKYUsLScS2pnqEkSNHwuHoWRtJ6xhMO/xg==",
      "path": "microsoft.extensions.objectpool/1.1.0",
      "hashPath": "microsoft.extensions.objectpool.1.1.0.nupkg.sha512"
    },
    "Microsoft.Extensions.Options/1.1.1": {
      "type": "package",
      "serviceable": true,
      "sha512": "sha512-G6+0sSQV81xYe0FYiraB3nt6Bnb2L8S+e87UrhasxbqFVKjnTeHEfEae3qNvoG30zp8jTFf7E25e05Lv9VIP5w==",
      "path": "microsoft.extensions.options/1.1.1",
      "hashPath": "microsoft.extensions.options.1.1.1.nupkg.sha512"
    },
    "Microsoft.Extensions.Primitives/1.1.0": {
      "type": "package",
      "serviceable": true,
      "sha512": "sha512-GhQG5CBUR9/czBLTblt1giKBkfvHVDeppWd6KIgPyexrspECqzzSW5IXe0STTTs2NlUp9vIFwjSWG8O9c74R9g==",
      "path": "microsoft.extensions.primitives/1.1.0",
      "hashPath": "microsoft.extensions.primitives.1.1.0.nupkg.sha512"
    },
    "Microsoft.Extensions.WebEncoders/1.1.1": {
      "type": "package",
      "serviceable": true,
      "sha512": "sha512-orwMgiF/lf/Uwt1CGV3o8OnycVLXg7rCk+y1BlNgDARtoBnC5VE4xoRfh0WkX+QktGSigt3dEPAuDANfWtqlCg==",
      "path": "microsoft.extensions.webencoders/1.1.1",
      "hashPath": "microsoft.extensions.webencoders.1.1.1.nupkg.sha512"
    },
    "Microsoft.Net.Http.Headers/1.1.1": {
      "type": "package",
      "serviceable": true,
      "sha512": "sha512-oFEaJxmaf5BkKFUeavWFBvTCrgrX/K4UTqOLFE4WpF34v6rTDBk4ohtZpQpVfG5+6VDwaE9TXDt9NGOaDaQfDg==",
      "path": "microsoft.net.http.headers/1.1.1",
      "hashPath": "microsoft.net.http.headers.1.1.1.nupkg.sha512"
    },
    "Newtonsoft.Json/9.0.1": {
      "type": "package",
      "serviceable": true,
      "sha512": "sha512-mAcRto2sdGxUI6yD2oJv+h5YKilEhpn5Te+ydnOFLNqinyzTmgf+II+sG+NJD/PCv4uCDEH0LLxI0LOjzMeKTg==",
      "path": "newtonsoft.json/9.0.1",
      "hashPath": "newtonsoft.json.9.0.1.nupkg.sha512"
    },
    "Remotion.Linq/2.1.1": {
      "type": "package",
      "serviceable": true,
      "sha512": "sha512-DqU0UFeI48vnXjLm33ZVWcoNnJsEKNV4rAJ1noYIL4r2Gx3XEBweKuy5PicwKHeTBtlJXRifYDl11FrzxMboNg==",
      "path": "remotion.linq/2.1.1",
      "hashPath": "remotion.linq.2.1.1.nupkg.sha512"
    },
    "runtime.native.System.Data.SqlClient.sni/4.3.0": {
      "type": "package",
      "serviceable": true,
      "sha512": "sha512-rX1bLxiHjj+ivd4bL9RwCvKM7agWHceLrAFsPQryTX0ZZ1J7x6vSz779YgMih0S4yD/GTvr7+dajBVutzJVvBg==",
      "path": "runtime.native.system.data.sqlclient.sni/4.3.0",
      "hashPath": "runtime.native.system.data.sqlclient.sni.4.3.0.nupkg.sha512"
    },
    "runtime.win7-x64.runtime.native.System.Data.SqlClient.sni/4.3.0": {
      "type": "package",
      "serviceable": true,
      "sha512": "sha512-j42JRgYOMi6B86attv8F3eDBISh+kzoKxLsu0zaq1ioY+je64chWd8fybvk9yPzayO3Dh1czhmf5B7rbafLRQA==",
      "path": "runtime.win7-x64.runtime.native.system.data.sqlclient.sni/4.3.0",
      "hashPath": "runtime.win7-x64.runtime.native.system.data.sqlclient.sni.4.3.0.nupkg.sha512"
    },
    "runtime.win7-x86.runtime.native.System.Data.SqlClient.sni/4.3.0": {
      "type": "package",
      "serviceable": true,
      "sha512": "sha512-4cXRTIcttvIreAoqK/5hzTtzepeggac+m5A0rzH+9zLtnFh2J0rLuGeJR4KjNLyKqPzO0kjqrs5lkRJEKX8HAA==",
      "path": "runtime.win7-x86.runtime.native.system.data.sqlclient.sni/4.3.0",
      "hashPath": "runtime.win7-x86.runtime.native.system.data.sqlclient.sni.4.3.0.nupkg.sha512"
    },
    "System.Collections.NonGeneric/4.3.0": {
      "type": "package",
      "serviceable": true,
      "sha512": "sha512-4ljOQaOULMcTrZTGAJ9fFHn4m6iDvRPhriuV21Q8ZqKvgmagVTiWTXnXTHnGeT7OAHX+xW2WtCI/F+rGy1g9Jw==",
      "path": "system.collections.nongeneric/4.3.0",
      "hashPath": "system.collections.nongeneric.4.3.0.nupkg.sha512"
    },
    "System.Collections.Specialized/4.3.0": {
      "type": "package",
      "serviceable": true,
      "sha512": "sha512-3H1b7liidoSP5u/5gYfST+Qn3b3z5Hs9/HIpSxKalzz6z7TtYQ/6QEqjjPswkVRd4iI++XCnNBVQtnZPLhF2Pg==",
      "path": "system.collections.specialized/4.3.0",
      "hashPath": "system.collections.specialized.4.3.0.nupkg.sha512"
    },
    "System.ComponentModel.Primitives/4.3.0": {
      "type": "package",
      "serviceable": true,
      "sha512": "sha512-2xHR8vQqzqsyRHlygIQqyr8IdyiYv9KspUwYQY6Ec4cmSRtkKzNwydlIeO5IBsLOe1owrjUy/9HZliIsigUHrQ==",
      "path": "system.componentmodel.primitives/4.3.0",
      "hashPath": "system.componentmodel.primitives.4.3.0.nupkg.sha512"
    },
    "System.ComponentModel.TypeConverter/4.3.0": {
      "type": "package",
      "serviceable": true,
      "sha512": "sha512-mTcxNGGDhGRBghjriDKDa05mpOXM6ry7ib1RKBS0ED/r0RGj6TCkmVvvHOqexomXdeU1YuUgsJ+a4Bno8ob0mw==",
      "path": "system.componentmodel.typeconverter/4.3.0",
      "hashPath": "system.componentmodel.typeconverter.4.3.0.nupkg.sha512"
    },
    "System.Data.Common/4.3.0": {
      "type": "package",
      "serviceable": true,
      "sha512": "sha512-lm6E3T5u7BOuEH0u18JpbJHxBfOJPuCyl4Kg1RH10ktYLp5uEEE1xKrHW56/We4SnZpGAuCc9N0MJpSDhTHZGQ==",
      "path": "system.data.common/4.3.0",
      "hashPath": "system.data.common.4.3.0.nupkg.sha512"
    },
    "System.Data.SqlClient/4.3.0": {
      "type": "package",
      "serviceable": true,
      "sha512": "sha512-XmWg+/uUcME++m/vsRzxq1fo0GvlYzFfZM5fCqIIDT+O7AwDdpfd1LkRXmcxeTJQTCgx5AN3Y3t5qSz5XxQLVw==",
      "path": "system.data.sqlclient/4.3.0",
      "hashPath": "system.data.sqlclient.4.3.0.nupkg.sha512"
    },
    "System.Diagnostics.Contracts/4.3.0": {
      "type": "package",
      "serviceable": true,
      "sha512": "sha512-XehaCrCgU/P/Gwfk+4BkOAa2Cll/wuN2t0DDRtI+IkV+Bf2+fJJsCZQEuE8GB9T95k00qaROM+VlIUQKo5HhzA==",
      "path": "system.diagnostics.contracts/4.3.0",
      "hashPath": "system.diagnostics.contracts.4.3.0.nupkg.sha512"
    },
    "System.Drawing.Primitives/4.0.0": {
      "type": "package",
      "serviceable": true,
      "sha512": "sha512-9lVRG1voBwzLGZkf1XFJrobdZDZ5ZHMU4FVTbXAbzehpN90yYgkUeo9GoEYdvkt/EXaaHZJAeuffXP4JBbY+Ig==",
      "path": "system.drawing.primitives/4.0.0",
      "hashPath": "system.drawing.primitives.4.0.0.nupkg.sha512"
    },
    "System.Interactive.Async/3.0.0": {
      "type": "package",
      "serviceable": true,
      "sha512": "sha512-iyrgkZz9Dzm0fiPouQszFC3SO/46k6AYd/jG9bu+/o0AoDMaRXtlo3TIuWVNtOuJFd1noL963QouroJ0T3rImw==",
      "path": "system.interactive.async/3.0.0",
      "hashPath": "system.interactive.async.3.0.0.nupkg.sha512"
    },
    "System.IO.Pipes/4.3.0": {
      "type": "package",
      "serviceable": true,
      "sha512": "sha512-wpGJuACA6r8+KRckXoI6ghGTwgPRiICI6T7kgHI/m7S5eMqV/8jH37fzAUhTwIe9RwlH/j1sWwm2Q2zyXwZGHw==",
      "path": "system.io.pipes/4.3.0",
      "hashPath": "system.io.pipes.4.3.0.nupkg.sha512"
    },
    "System.Net.WebSockets/4.3.0": {
      "type": "package",
      "serviceable": true,
      "sha512": "sha512-u6fFNY5q4T8KerUAVbya7bR6b7muBuSTAersyrihkcmE5QhEOiH3t5rh4il15SexbVlpXFHGuMwr/m8fDrnkQg==",
      "path": "system.net.websockets/4.3.0",
      "hashPath": "system.net.websockets.4.3.0.nupkg.sha512"
    },
    "System.Runtime.CompilerServices.Unsafe/4.3.0": {
      "type": "package",
      "serviceable": true,
      "sha512": "sha512-rcnXA1U9W3QUtMSGoyoNHH6w4V5Rxa/EKXmzpORUYlDAlDB34hIQoU57ATXl8xHa83VvzRm6PcElEizgUd7U5w==",
      "path": "system.runtime.compilerservices.unsafe/4.3.0",
      "hashPath": "system.runtime.compilerservices.unsafe.4.3.0.nupkg.sha512"
    },
    "System.Runtime.Serialization.Primitives/4.1.1": {
      "type": "package",
      "serviceable": true,
      "sha512": "sha512-HZ6Du5QrTG8MNJbf4e4qMO3JRAkIboGT5Fk804uZtg3Gq516S7hAqTm2UZKUHa7/6HUGdVy3AqMQKbns06G/cg==",
      "path": "system.runtime.serialization.primitives/4.1.1",
      "hashPath": "system.runtime.serialization.primitives.4.1.1.nupkg.sha512"
    },
    "System.Security.Cryptography.Pkcs/4.3.0": {
      "type": "package",
      "serviceable": true,
      "sha512": "sha512-Ks0AAotG7oPD9WZOW6k2vUQ2I5ZPQLsaVlRdpRh131EIVR5Rgm4qz0koaO4D01NWavD0FYV09Op+3GuzM7zbwA==",
      "path": "system.security.cryptography.pkcs/4.3.0",
      "hashPath": "system.security.cryptography.pkcs.4.3.0.nupkg.sha512"
    },
    "System.Text.Encoding.CodePages/4.3.0": {
      "type": "package",
      "serviceable": true,
      "sha512": "sha512-5czxsIl7TejVVXbt8PVeio+Sip+/wcHcbqwQRtR0VBlV9LiN9+DvVKORau87Ydbn363Nb284A9+BHTj8eIC1uA==",
      "path": "system.text.encoding.codepages/4.3.0",
      "hashPath": "system.text.encoding.codepages.4.3.0.nupkg.sha512"
    },
    "System.Text.Encodings.Web/4.3.0": {
      "type": "package",
      "serviceable": true,
      "sha512": "sha512-ilLTKoirqw+Mbt+6x1MOxZKEwflasdP5WNuo5m5rKSXtAqazlEDqdyBH1XbvENuDQUtKNeP48CI1dyDNlEAeOA==",
      "path": "system.text.encodings.web/4.3.0",
      "hashPath": "system.text.encodings.web.4.3.0.nupkg.sha512"
    },
    "System.Xml.XmlDocument/4.3.0": {
      "type": "package",
      "serviceable": true,
      "sha512": "sha512-FuJ2Glx6t7FknYjEzzyJFMzMRC1M+pfC98g1WadWZAJ8Errn1jQsqDVe0Pta8zLrQeQ3A0R70PTh5NNMvxp6CQ==",
      "path": "system.xml.xmldocument/4.3.0",
      "hashPath": "system.xml.xmldocument.4.3.0.nupkg.sha512"
    },
    "System.Xml.XPath/4.3.0": {
      "type": "package",
      "serviceable": true,
      "sha512": "sha512-zxCIYLVjS8ZA5Qk8/R6RpLkmRaDIEMjJgvEuK/sGU34C3DaM7op4qBgMRcOelN9hACZKRm5ukB6a4YOnF8KsiQ==",
      "path": "system.xml.xpath/4.3.0",
      "hashPath": "system.xml.xpath.4.3.0.nupkg.sha512"
    },
    "System.Xml.XPath.XmlDocument/4.3.0": {
      "type": "package",
      "serviceable": true,
      "sha512": "sha512-A/uxsWi/Ifzkmd4ArTLISMbfFs6XpRPsXZonrIqyTY70xi8t+mDtvSM5Os0RqyRDobjMBwIDHDL4NOIbkDwf7A==",
      "path": "system.xml.xpath.xmldocument/4.3.0",
      "hashPath": "system.xml.xpath.xmldocument.4.3.0.nupkg.sha512"
    }
  }
}