﻿{
  "_comment": "Login page content start ",
  "COMPONENTS": "MENU",

  "Error5": "Error 5",
  "AccessDenied": "Access Denied.",
  "NotAccess": "You do not have access to this resource.",
  "PasswordChageMsg": "Password change successfully.",

  "Success": "Success",
  "Error": "Error",
  "Select": "--Select--",
  "EmailSendMsg": "Email send successfully",
  "EmailNotSendMsg": "Email not send successfully",
  "ForgetPasswordEmailSendMSG": "Email send successfully please check your mail.",
  "Submit": "Submit",

  "Email_address": "Email address",
  "Enter_email": "Enter email",
  "Invalid_email": "email id is incorrect",
  "Password": "Password",
  "ConfirmPassword": "Confirm Password",
  "Enter_Password": "Enter Password",
  "Login": "Login",
  "Connect_with_Google": "Connect with Google+",
  "Remember_me": "Remember me",
  "Forgot_Password": "Forgot Your Password?",
  "Forgot_Password_Title": "Forgot Password",
  "EmailRequred": "Please enter email",
  "SendMail": "Send Email",
  "CreatedBy": "Created By",
  "CreatedAt": "Created date",
  "ModifyBy": "Last Updated By",
  "ModifyAt": "Last Updated",
  "LastLogin": "Last Login",
  "View": "View",
  "DoubleVerification": "Verification",
  "DoubleVerificationrequired": "Verification selection required",
  "verifycode": "verify code",
  "verify": "verify",
  "resendcode": "Re Send code",

  "Account": "Account",
  "Account_Master": "Accounts",
  "AccountName": "Account Name",
  "AccountNameRequred": "Please enter account name",
  "ApiCode": "Api Code",
  "ApiCodeRequired": "Please enter api code",

  "isActive": "Is Active?",
  "SendPasswordEmails": "Password Email?",
  "Close": "Close",
  "Savechanges": "Save changes",
  "AddAccount": "Add Account",
  "Edit": "Edit",
  "Action": "Action",

  "AddUser": "Add User",
  "User_Master": "Users",
  "User_Role": "User Role",
  "UserRoleRequred": "Please select user role ",
  "Name": "Name",
  "NameRequred": "Please enter name",
  "EmailVarificationCodeRequred": "Please enter verification code",
  "PhoneVeficationUsersubmitted": "Please enter verification code",
  "FirstName": "First Name",
  "LastName": "Last Name",
  "LastNameRequred": "Please enter last name",
  "Picture": "Picture",
  "ApiUser": "User Name",
  "ApiUserRequred": "Please enter user name",
  "ApiPassword": "User Password",
  "ApiPasswordRequred": "Please enter user password",
  "Email": "Email",
  "User_Profile": "User Profile",
  "UserProfileRequred": "User profile required",
  "MobileNo": "Moblie No",
  "MobileNoRequired": "Please enter moblie no",
  "apiUsuario": "api Usuario",
  "apiUsuarioRequired": "Please enter api Usuario",
  "apiSenha": "api Senha",
  "apiSenhaRequred": "Please enter api Senha",
  "AccessToken": "Dropbox Token",

  "ProfileName": "Profile Name",
  "ProfileNameRequired": "Profile name required",

  "Profile_Master": "Profile Master",
  "Add_Profile": "Add Profile",
  "User_List": "User List",
  "UserRequred": "User selection is required",
  "UserName": "User Name",

  "EditProfile": "Edit Profile",
  "Profile": "Profiles",

  "SingleDocumentSearch": "Single document search",
  "ListOfSearchedDocuments": "List of searched docs",
  "DocumentCode": "Document Code",
  "DocumentCodeRequired": "Document Code is required",
  "Querydocument": "Query document",
  "Date": "Date",
  "UserRequired": "User Required",
  "AccountRequired": "Account Required",
  "DateRequired": "Date Required",
  "CreatedDate": "Created Date",
  "StartDate": "Start Date",
  "EndDate": "End Date",
  "MultipleDocSearch": "Batch search",
  "AllUsers": "All Users",
  "AllAccount": "All",
  "MobileNoNotValid": "Mobile No Not Valid",

  "FileSelectionRequred": "File selection required.",
  "Warning": "Warning",
  "ListOfMultipleSearch": "List of batches",
  "FileName": "File Name",
  "totalFile": "Total File",
  "totalProceed": "Processed",
  "totlaFailed": "Error",
  "Status": "Status",
  "APIHelp": "Api info",

  "AdminUser": "Admin Users",
  "AddAdminUser": "Add New Admin",
  "Admin_Master": "Admin Master"

}